%YAML 1.1
%TAG !u! tag:unity3d.com,2011:
--- !u!74 &7400000
AnimationClip:
  m_ObjectHideFlags: 0
  m_CorrespondingSourceObject: {fileID: 0}
  m_PrefabInstance: {fileID: 0}
  m_PrefabAsset: {fileID: 0}
  m_Name: Cloud
  serializedVersion: 6
  m_Legacy: 0
  m_Compressed: 0
  m_UseHighQualityCurve: 1
  m_RotationCurves: []
  m_CompressedRotationCurves: []
  m_EulerCurves: []
  m_PositionCurves: []
  m_ScaleCurves: []
  m_FloatCurves: []
  m_PPtrCurves:
  - curve:
    - time: 0
      value: {fileID: -5930761408396263288, guid: e2e4f6b0009d72146ad51f45af759e91, type: 3}
    - time: 0.083333336
      value: {fileID: -584227882247926783, guid: e2e4f6b0009d72146ad51f45af759e91, type: 3}
    - time: 0.16666667
      value: {fileID: 4108185312755316462, guid: e2e4f6b0009d72146ad51f45af759e91, type: 3}
    - time: 0.25
      value: {fileID: 3181474656318956640, guid: e2e4f6b0009d72146ad51f45af759e91, type: 3}
    - time: 0.33333334
      value: {fileID: 4569878677459589856, guid: e2e4f6b0009d72146ad51f45af759e91, type: 3}
    - time: 0.41666666
      value: {fileID: -6770460168155603077, guid: e2e4f6b0009d72146ad51f45af759e91, type: 3}
    - time: 0.5
      value: {fileID: 984350076395415593, guid: e2e4f6b0009d72146ad51f45af759e91, type: 3}
    - time: 0.5833333
      value: {fileID: 400369153387138818, guid: e2e4f6b0009d72146ad51f45af759e91, type: 3}
    - time: 0.6666667
      value: {fileID: -2448157659625889631, guid: e2e4f6b0009d72146ad51f45af759e91, type: 3}
    - time: 0.75
      value: {fileID: -6904127548561708090, guid: e2e4f6b0009d72146ad51f45af759e91, type: 3}
    - time: 0.8333333
      value: {fileID: 3969312344405084531, guid: e2e4f6b0009d72146ad51f45af759e91, type: 3}
    - time: 0.9166667
      value: {fileID: -7839515091330403720, guid: e2e4f6b0009d72146ad51f45af759e91, type: 3}
    - time: 1
      value: {fileID: -7844082741341317599, guid: e2e4f6b0009d72146ad51f45af759e91, type: 3}
    - time: 1.0833334
      value: {fileID: 8961893237862552539, guid: e2e4f6b0009d72146ad51f45af759e91, type: 3}
    - time: 1.1666666
      value: {fileID: -2766790255929736621, guid: e2e4f6b0009d72146ad51f45af759e91, type: 3}
    - time: 1.25
      value: {fileID: -8813105409219185932, guid: e2e4f6b0009d72146ad51f45af759e91, type: 3}
    - time: 1.3333334
      value: {fileID: 1688713140211266933, guid: e2e4f6b0009d72146ad51f45af759e91, type: 3}
    - time: 1.4166666
      value: {fileID: 1179009501147831840, guid: e2e4f6b0009d72146ad51f45af759e91, type: 3}
    - time: 1.5
      value: {fileID: -2060745513717958903, guid: e2e4f6b0009d72146ad51f45af759e91, type: 3}
    - time: 1.5833334
      value: {fileID: 1525332278782909648, guid: e2e4f6b0009d72146ad51f45af759e91, type: 3}
    - time: 1.6666666
      value: {fileID: 1194372550791217089, guid: e2e4f6b0009d72146ad51f45af759e91, type: 3}
    - time: 1.75
      value: {fileID: -5123240000309437237, guid: e2e4f6b0009d72146ad51f45af759e91, type: 3}
    - time: 1.8333334
      value: {fileID: 4008850171305735446, guid: e2e4f6b0009d72146ad51f45af759e91, type: 3}
    - time: 1.9166666
      value: {fileID: 2608570448974489152, guid: e2e4f6b0009d72146ad51f45af759e91, type: 3}
    - time: 2
      value: {fileID: 3013179253239548817, guid: e2e4f6b0009d72146ad51f45af759e91, type: 3}
    - time: 2.0833333
      value: {fileID: -7720739894212410896, guid: e2e4f6b0009d72146ad51f45af759e91, type: 3}
    - time: 2.1666667
      value: {fileID: 4642142865292452544, guid: e2e4f6b0009d72146ad51f45af759e91, type: 3}
    - time: 2.25
      value: {fileID: -4234196043008073410, guid: e2e4f6b0009d72146ad51f45af759e91, type: 3}
    - time: 2.3333333
      value: {fileID: -5198260522380845135, guid: e2e4f6b0009d72146ad51f45af759e91, type: 3}
    - time: 2.4166667
      value: {fileID: -491746352060593966, guid: e2e4f6b0009d72146ad51f45af759e91, type: 3}
    - time: 2.5
      value: {fileID: -8100696237663357401, guid: e2e4f6b0009d72146ad51f45af759e91, type: 3}
    - time: 2.5833333
      value: {fileID: -5833487716637534748, guid: e2e4f6b0009d72146ad51f45af759e91, type: 3}
    - time: 2.6666667
      value: {fileID: -5339551076883675172, guid: e2e4f6b0009d72146ad51f45af759e91, type: 3}
    - time: 2.75
      value: {fileID: 8675371180010023259, guid: e2e4f6b0009d72146ad51f45af759e91, type: 3}
    - time: 2.8333333
      value: {fileID: 7690396761288150058, guid: e2e4f6b0009d72146ad51f45af759e91, type: 3}
    - time: 2.9166667
      value: {fileID: -8466397612919082957, guid: e2e4f6b0009d72146ad51f45af759e91, type: 3}
    - time: 3
      value: {fileID: 1844201336038292353, guid: e2e4f6b0009d72146ad51f45af759e91, type: 3}
    - time: 3.0833333
      value: {fileID: 7043317143764752613, guid: e2e4f6b0009d72146ad51f45af759e91, type: 3}
    - time: 3.1666667
      value: {fileID: -5145477605415720643, guid: e2e4f6b0009d72146ad51f45af759e91, type: 3}
    - time: 3.25
      value: {fileID: -1680928766131382901, guid: e2e4f6b0009d72146ad51f45af759e91, type: 3}
    - time: 3.3333333
      value: {fileID: 5790071487710035543, guid: e2e4f6b0009d72146ad51f45af759e91, type: 3}
    - time: 3.4166667
      value: {fileID: 5157497525336647362, guid: e2e4f6b0009d72146ad51f45af759e91, type: 3}
    - time: 3.5
      value: {fileID: 9019774353466194234, guid: e2e4f6b0009d72146ad51f45af759e91, type: 3}
    - time: 3.5833333
      value: {fileID: -4644502652851664901, guid: e2e4f6b0009d72146ad51f45af759e91, type: 3}
    - time: 3.6666667
      value: {fileID: -6706545369078685940, guid: e2e4f6b0009d72146ad51f45af759e91, type: 3}
    - time: 3.75
      value: {fileID: 8284197366913073874, guid: e2e4f6b0009d72146ad51f45af759e91, type: 3}
    - time: 3.8333333
      value: {fileID: 495839204631934713, guid: e2e4f6b0009d72146ad51f45af759e91, type: 3}
    - time: 3.9166667
      value: {fileID: 5387007313262608883, guid: e2e4f6b0009d72146ad51f45af759e91, type: 3}
    - time: 4
      value: {fileID: 1055863713467981530, guid: e2e4f6b0009d72146ad51f45af759e91, type: 3}
    - time: 4.0833335
      value: {fileID: -4220714579996316378, guid: e2e4f6b0009d72146ad51f45af759e91, type: 3}
    - time: 4.1666665
      value: {fileID: 2484179042871412026, guid: e2e4f6b0009d72146ad51f45af759e91, type: 3}
    - time: 4.25
      value: {fileID: 5142575540058710559, guid: e2e4f6b0009d72146ad51f45af759e91, type: 3}
    - time: 4.3333335
      value: {fileID: 8963122107857290698, guid: e2e4f6b0009d72146ad51f45af759e91, type: 3}
    - time: 4.4166665
      value: {fileID: -9000818906016269313, guid: e2e4f6b0009d72146ad51f45af759e91, type: 3}
    - time: 4.5
      value: {fileID: -1219634695937007919, guid: e2e4f6b0009d72146ad51f45af759e91, type: 3}
    - time: 4.5833335
      value: {fileID: 8716343222318018942, guid: e2e4f6b0009d72146ad51f45af759e91, type: 3}
    - time: 4.6666665
      value: {fileID: -5348272353464011988, guid: e2e4f6b0009d72146ad51f45af759e91, type: 3}
    - time: 4.75
      value: {fileID: -8647450762334705733, guid: e2e4f6b0009d72146ad51f45af759e91, type: 3}
    - time: 4.8333335
      value: {fileID: 1163085422080614993, guid: e2e4f6b0009d72146ad51f45af759e91, type: 3}
    - time: 4.9166665
      value: {fileID: -5218954528722554688, guid: e2e4f6b0009d72146ad51f45af759e91, type: 3}
    - time: 5
      value: {fileID: 6543834047054516497, guid: e2e4f6b0009d72146ad51f45af759e91, type: 3}
    - time: 5.0833335
      value: {fileID: 4129079272020644972, guid: e2e4f6b0009d72146ad51f45af759e91, type: 3}
    - time: 5.1666665
      value: {fileID: -1428492242911645263, guid: e2e4f6b0009d72146ad51f45af759e91, type: 3}
    - time: 5.25
      value: {fileID: 3110775801977954824, guid: e2e4f6b0009d72146ad51f45af759e91, type: 3}
    attribute: m_Sprite
    path: 
    classID: 212
    script: {fileID: 0}
  m_SampleRate: 12
  m_WrapMode: 0
  m_Bounds:
    m_Center: {x: 0, y: 0, z: 0}
    m_Extent: {x: 0, y: 0, z: 0}
  m_ClipBindingConstant:
    genericBindings:
    - serializedVersion: 2
      path: 0
      attribute: 0
      script: {fileID: 0}
      typeID: 212
      customType: 23
      isPPtrCurve: 1
    pptrCurveMapping:
    - {fileID: -5930761408396263288, guid: e2e4f6b0009d72146ad51f45af759e91, type: 3}
    - {fileID: -584227882247926783, guid: e2e4f6b0009d72146ad51f45af759e91, type: 3}
    - {fileID: 4108185312755316462, guid: e2e4f6b0009d72146ad51f45af759e91, type: 3}
    - {fileID: 3181474656318956640, guid: e2e4f6b0009d72146ad51f45af759e91, type: 3}
    - {fileID: 4569878677459589856, guid: e2e4f6b0009d72146ad51f45af759e91, type: 3}
    - {fileID: -6770460168155603077, guid: e2e4f6b0009d72146ad51f45af759e91, type: 3}
    - {fileID: 984350076395415593, guid: e2e4f6b0009d72146ad51f45af759e91, type: 3}
    - {fileID: 400369153387138818, guid: e2e4f6b0009d72146ad51f45af759e91, type: 3}
    - {fileID: -2448157659625889631, guid: e2e4f6b0009d72146ad51f45af759e91, type: 3}
    - {fileID: -6904127548561708090, guid: e2e4f6b0009d72146ad51f45af759e91, type: 3}
    - {fileID: 3969312344405084531, guid: e2e4f6b0009d72146ad51f45af759e91, type: 3}
    - {fileID: -7839515091330403720, guid: e2e4f6b0009d72146ad51f45af759e91, type: 3}
    - {fileID: -7844082741341317599, guid: e2e4f6b0009d72146ad51f45af759e91, type: 3}
    - {fileID: 8961893237862552539, guid: e2e4f6b0009d72146ad51f45af759e91, type: 3}
    - {fileID: -2766790255929736621, guid: e2e4f6b0009d72146ad51f45af759e91, type: 3}
    - {fileID: -8813105409219185932, guid: e2e4f6b0009d72146ad51f45af759e91, type: 3}
    - {fileID: 1688713140211266933, guid: e2e4f6b0009d72146ad51f45af759e91, type: 3}
    - {fileID: 1179009501147831840, guid: e2e4f6b0009d72146ad51f45af759e91, type: 3}
    - {fileID: -2060745513717958903, guid: e2e4f6b0009d72146ad51f45af759e91, type: 3}
    - {fileID: 1525332278782909648, guid: e2e4f6b0009d72146ad51f45af759e91, type: 3}
    - {fileID: 1194372550791217089, guid: e2e4f6b0009d72146ad51f45af759e91, type: 3}
    - {fileID: -5123240000309437237, guid: e2e4f6b0009d72146ad51f45af759e91, type: 3}
    - {fileID: 4008850171305735446, guid: e2e4f6b0009d72146ad51f45af759e91, type: 3}
    - {fileID: 2608570448974489152, guid: e2e4f6b0009d72146ad51f45af759e91, type: 3}
    - {fileID: 3013179253239548817, guid: e2e4f6b0009d72146ad51f45af759e91, type: 3}
    - {fileID: -7720739894212410896, guid: e2e4f6b0009d72146ad51f45af759e91, type: 3}
    - {fileID: 4642142865292452544, guid: e2e4f6b0009d72146ad51f45af759e91, type: 3}
    - {fileID: -4234196043008073410, guid: e2e4f6b0009d72146ad51f45af759e91, type: 3}
    - {fileID: -5198260522380845135, guid: e2e4f6b0009d72146ad51f45af759e91, type: 3}
    - {fileID: -491746352060593966, guid: e2e4f6b0009d72146ad51f45af759e91, type: 3}
    - {fileID: -8100696237663357401, guid: e2e4f6b0009d72146ad51f45af759e91, type: 3}
    - {fileID: -5833487716637534748, guid: e2e4f6b0009d72146ad51f45af759e91, type: 3}
    - {fileID: -5339551076883675172, guid: e2e4f6b0009d72146ad51f45af759e91, type: 3}
    - {fileID: 8675371180010023259, guid: e2e4f6b0009d72146ad51f45af759e91, type: 3}
    - {fileID: 7690396761288150058, guid: e2e4f6b0009d72146ad51f45af759e91, type: 3}
    - {fileID: -8466397612919082957, guid: e2e4f6b0009d72146ad51f45af759e91, type: 3}
    - {fileID: 1844201336038292353, guid: e2e4f6b0009d72146ad51f45af759e91, type: 3}
    - {fileID: 7043317143764752613, guid: e2e4f6b0009d72146ad51f45af759e91, type: 3}
    - {fileID: -5145477605415720643, guid: e2e4f6b0009d72146ad51f45af759e91, type: 3}
    - {fileID: -1680928766131382901, guid: e2e4f6b0009d72146ad51f45af759e91, type: 3}
    - {fileID: 5790071487710035543, guid: e2e4f6b0009d72146ad51f45af759e91, type: 3}
    - {fileID: 5157497525336647362, guid: e2e4f6b0009d72146ad51f45af759e91, type: 3}
    - {fileID: 9019774353466194234, guid: e2e4f6b0009d72146ad51f45af759e91, type: 3}
    - {fileID: -4644502652851664901, guid: e2e4f6b0009d72146ad51f45af759e91, type: 3}
    - {fileID: -6706545369078685940, guid: e2e4f6b0009d72146ad51f45af759e91, type: 3}
    - {fileID: 8284197366913073874, guid: e2e4f6b0009d72146ad51f45af759e91, type: 3}
    - {fileID: 495839204631934713, guid: e2e4f6b0009d72146ad51f45af759e91, type: 3}
    - {fileID: 5387007313262608883, guid: e2e4f6b0009d72146ad51f45af759e91, type: 3}
    - {fileID: 1055863713467981530, guid: e2e4f6b0009d72146ad51f45af759e91, type: 3}
    - {fileID: -4220714579996316378, guid: e2e4f6b0009d72146ad51f45af759e91, type: 3}
    - {fileID: 2484179042871412026, guid: e2e4f6b0009d72146ad51f45af759e91, type: 3}
    - {fileID: 5142575540058710559, guid: e2e4f6b0009d72146ad51f45af759e91, type: 3}
    - {fileID: 8963122107857290698, guid: e2e4f6b0009d72146ad51f45af759e91, type: 3}
    - {fileID: -9000818906016269313, guid: e2e4f6b0009d72146ad51f45af759e91, type: 3}
    - {fileID: -1219634695937007919, guid: e2e4f6b0009d72146ad51f45af759e91, type: 3}
    - {fileID: 8716343222318018942, guid: e2e4f6b0009d72146ad51f45af759e91, type: 3}
    - {fileID: -5348272353464011988, guid: e2e4f6b0009d72146ad51f45af759e91, type: 3}
    - {fileID: -8647450762334705733, guid: e2e4f6b0009d72146ad51f45af759e91, type: 3}
    - {fileID: 1163085422080614993, guid: e2e4f6b0009d72146ad51f45af759e91, type: 3}
    - {fileID: -5218954528722554688, guid: e2e4f6b0009d72146ad51f45af759e91, type: 3}
    - {fileID: 6543834047054516497, guid: e2e4f6b0009d72146ad51f45af759e91, type: 3}
    - {fileID: 4129079272020644972, guid: e2e4f6b0009d72146ad51f45af759e91, type: 3}
    - {fileID: -1428492242911645263, guid: e2e4f6b0009d72146ad51f45af759e91, type: 3}
    - {fileID: 3110775801977954824, guid: e2e4f6b0009d72146ad51f45af759e91, type: 3}
  m_AnimationClipSettings:
    serializedVersion: 2
    m_AdditiveReferencePoseClip: {fileID: 0}
    m_AdditiveReferencePoseTime: 0
    m_StartTime: 0
    m_StopTime: 5.3333335
    m_OrientationOffsetY: 0
    m_Level: 0
    m_CycleOffset: 0
    m_HasAdditiveReferencePose: 0
    m_LoopTime: 1
    m_LoopBlend: 0
    m_LoopBlendOrientation: 0
    m_LoopBlendPositionY: 0
    m_LoopBlendPositionXZ: 0
    m_KeepOriginalOrientation: 0
    m_KeepOriginalPositionY: 1
    m_KeepOriginalPositionXZ: 0
    m_HeightFromFeet: 0
    m_Mirror: 0
  m_EditorCurves: []
  m_EulerEditorCurves: []
  m_HasGenericRootTransform: 0
  m_HasMotionFloatCurves: 0
  m_Events: []
